[1] "BLOCK2020_TAZ1454:"
            GEOID                                                                         NAME variable   blockgroup       tract TAZ1454 SUPERD block_POPULATION
1 060855017001008 Block 1008, Block Group 1, Census Tract 5017, Santa Clara County, California  P1_001N 060855017001 06085501700     560     11                0
2 060855109001003 Block 1003, Block Group 1, Census Tract 5109, Santa Clara County, California  P1_001N 060855109001 06085510900     360      8               81
3 060014351032020  Block 2020, Block Group 2, Census Tract 4351.03, Alameda County, California  P1_001N 060014351032 06001435103     820     17                0
4 060014305003017     Block 3017, Block Group 3, Census Tract 4305, Alameda County, California  P1_001N 060014305003 06001430500     853     17              116
5 060014506071030  Block 1030, Block Group 1, Census Tract 4506.07, Alameda County, California  P1_001N 060014506071 06001450607     739     15                0
6 060014507451018  Block 1018, Block Group 1, Census Tract 4507.45, Alameda County, California  P1_001N 060014507451 06001450745     743     15              140
[1] "ACS_5year: 2022"
[1] "emp_self_employed_w:"
# A tibble: 1,453 × 8
   TAZ1454 AGREMPN FPSEMPN HEREMPN MWTEMPN OTHEMPN RETEMPN TOTEMP
     <int>   <int>   <int>   <int>   <int>   <int>   <int>  <dbl>
 1       1       6     462     323     114     122      42   1069
 2       2      11     799     559     198     211      72   1850
 3       3       1      55      38      14      15       5    128
 4       4      12     932     652     231     247      84   2158
 5       5       7     521     365     129     138      47   1207
 6       6       2     136      95      34      36      12    315
 7       7       3     165     116      41      44      15    384
 8       8       1     102      72      24      28       9    236
 9       9       2     179     126      44      47      16    414
10      10       6     450     314     111     119      40   1040
# ℹ 1,443 more rows
# ℹ Use `print(n = ...)` to see more rows
[1] "emp_self_employed_county total: 397,955"
[1] "LEHD LODES from 2022 (after adding self-employment):"
# A tibble: 99 × 3
   w_county h_county         TOTEMP
   <chr>    <chr>             <dbl>
 1 Alameda  Alameda          431548
 2 Alameda  Contra Costa     109614
 3 Alameda  Marin              7941
 4 Alameda  Napa               2928
 5 Alameda  Outside Bay Area 175351
 6 Alameda  San Francisco     36469
 7 Alameda  San Mateo         30997
 8 Alameda  Santa Clara       77684
 9 Alameda  Solano            19277
10 Alameda  Sonoma             8413
# ℹ 89 more rows
# ℹ Use `print(n = ...)` to see more rows
[1] "employment:"
# A tibble: 1,454 × 8
   TAZ1454 AGREMPN FPSEMPN HEREMPN MWTEMPN RETEMPN OTHEMPN TOTEMP
     <int>   <int>   <int>   <int>   <int>   <int>   <int>  <dbl>
 1       1       9   13221    2082     599     263    1715  17889
 2       2      18   17213    3233    1225     151    4318  26158
 3       3       1    1237     526      15      59     346   2184
 4       4      12   14568    3295     628     596    4574  23673
 5       5       7    5877    3591     716    2257    1612  14060
 6       6       2     564    2726      63      78     136   3569
 7       7       3    1379    4310      49     386     183   6310
 8       8       1     684    2642      56      48     727   4158
 9       9       2     864    3761      48     153    1836   6664
10      10      16    4396   10467     795     183    9677  25534
# ℹ 1,444 more rows
# ℹ Use `print(n = ...)` to see more rows
…
gq_noninst_m_65p_oth   " 7283"
gq_inst_f_0017         "  489"
gq_noninst_f_0017_univ "  167"
gq_noninst_f_0017_mil  "    1"
gq_noninst_f_0017_oth  " 1849"
gq_inst_f_1864         " 6139"
gq_noninst_f_1864_univ "26563"
gq_noninst_f_1864_mil  "  411"
gq_noninst_f_1864_oth  "20458"
gq_inst_f_65p          "12915"
gq_noninst_f_65p_univ  "    6"
gq_noninst_f_65p_mil   "    0"
gq_noninst_f_65p_oth   " 7137"
[1] "ACS_tract_raw (1772 rows):"
# A tibble: 1,772 × 9
   GEOID       hhwrks0 hhwrks1 hhwrks2 hhwrks3p ownkidsyes rentkidsyes ownkidsno rentkidsno
   <chr>         <dbl>   <dbl>   <dbl>    <dbl>      <dbl>       <dbl>     <dbl>      <dbl>
 1 06001400100     412     589     299       77        365          18       885        109
 2 06001400200     166     388     275       47        123          79       367        307
 3 06001400300     725     907     860      146        375         217       572       1474
 4 06001400400     417     523     718      102        289         182       584        705
 5 06001400500     339     697     482      161        183         115       618        763
 6 06001400600      89     274     356       49        103          96       207        362
 7 06001400700     281     846     658      227        265         164       482       1101
 8 06001400800     287     819     663      116        148         214       513       1010
 9 06001400900     148     385     421      159        129         209       273        502
10 06001401000     325     843     857      277        293         187       648       1174
# ℹ 1,762 more rows
# ℹ Use `print(n = ...)` to see more rows
[1] "ACS_BG_raw (5187 rows):"
# A tibble: 5,187 × 132
   GEOID        tothh hhpop male0_4 male5_9 male10_14 male15_17 male18_19 male20 male21 male22_24 male25_29 male30_34 male35_39 male40_44 male45_49 male50_54 male55_59 male60_61 male62_64 male65_66 male67_69 male70_74 male75_79 male80_84 male85p female0_4 female5_9 female10_14 female15_17 female18_19 female20 female21 female22_24 female25_29 female30_34 female35_39 female40_44 female45_49 female50_54 female55_59 female60_61 female62_64 female65_66 female67_69 female70_74 female75_79 female80_84
   <chr>        <dbl> <dbl>   <dbl>   <dbl>     <dbl>     <dbl>     <dbl>  <dbl>  <dbl>     <dbl>     <dbl>     <dbl>     <dbl>     <dbl>     <dbl>     <dbl>     <dbl>     <dbl>     <dbl>     <dbl>     <dbl>     <dbl>     <dbl>     <dbl>   <dbl>     <dbl>     <dbl>       <dbl>       <dbl>       <dbl>    <dbl>    <dbl>       <dbl>       <dbl>       <dbl>       <dbl>       <dbl>       <dbl>       <dbl>       <dbl>       <dbl>       <dbl>       <dbl>       <dbl>       <dbl>       <dbl>       <dbl>
 1 060014001001   711  1975      52      79       144        28         0      0      0        31        40        94        11        60        36       161        28        65        28         9        46        86        26         8      44        19        94          30          21          10        0       24          21          31          61          90          28          31         120          64           0          24           9          53          47          46          50
 2 060014001002   666  1294      20      26        23         0         0      0      0         0         0        22        19        10        49        40       157        26         9        10        30        28        30        20      26        42        41          29          13           0        0        0           0          12           8          56          55          57          64          54           0          28          47          45          41          28          42
 3 060014002001   421   948      35      20        12        20         0      4      0         0         8        15        57        22        18        14        29        10        12        19        23        75        32         5       9        40         0          25           4          11        0        0          13          39          17          41          22          43           8          25           6          28          13          26          71          47          19
 4 060014002002   455  1072      48      15         9         0        10      0      0        12       103        93        63        32        51        56        25         0        39         0        12        20        18        16      14        46         7          34          35           0        0        0           7          69          47          77           5          44          33          17           7          12           3           9          14          69          28
 5 060014003001   485  1300       0      68        98        18        18      0      0        27       125        33        32        70        15        73        79         0         0         0         0        49        73         0       0        14        40          18          16           0        0        0           0          11          55          16          55          53         113           0           0          25          15           0          54          37           0
 6 060014003002  1009  1680       3       0        34        67         6      0      6         0       229       131       146        20       157         0         0         0         0         0         0        20         1         0      18         4        42           0          14           7        8        0           0         133          66          35          60         132          65          20           0           0          12          42          69           0          18
 7 060014003003   601  1093       0      21         0        64        45      0      0         0         0        47        35        10        44         0        85        25        67         0         0        51         0        14      13        14        42          30           0           0        0       23           0          69          51          81          16           7         108           8           0          15          46           0          29          36           0
 8 060014003004   543  1516      31     117        29         0         0      0      0         0        32       137        40        54        15        98        16        21         0         0        31         0        29        14       0        61        70          27           0          23        0        0           0         187         116          60          31          56          36          18          16          48           0          23          34          34           0
 9 060014004001   642  1249       0      29        48        15         0      0      0         0         0        76        78        24        87        68         9        15        49         9        10        36        21         0       0        16        44          22           6          10       12        0           0          82          50          71          47          39           8          35          22           9          56          34          64          38           0
10 060014004002   503  1314      61      32        17         0         0      0      0         0        65        58        60        48        39        10         8        23        40        14        10        28         9         9       8        41        71          94          12           0        0        0          52          87          19         111          49          55          21          36           0          48          17           9          10          10          23
# ℹ 5,177 more rows
# ℹ 84 more variables: female85p <dbl>, own1 <dbl>, own2 <dbl>, own3 <dbl>, own4 <dbl>, own5 <dbl>, own6 <dbl>, own7p <dbl>, rent1 <dbl>, rent2 <dbl>, rent3 <dbl>, rent4 <dbl>, rent5 <dbl>, rent6 <dbl>, rent7p <dbl>, white_nonh <dbl>, black_nonh <dbl>, asian_nonh <dbl>, total_nonh <dbl>, total_hisp <dbl>, unit1d <dbl>, unit1a <dbl>, unit2 <dbl>, unit3_4 <dbl>, unit5_9 <dbl>, unit10_19 <dbl>, unit20_49 <dbl>, unit50p <dbl>, mobile <dbl>, boat_RV_Van <dbl>, employed <dbl>, armedforces <dbl>,
#   hhinc000_010 <dbl>, hhinc010_015 <dbl>, hhinc015_020 <dbl>, hhinc020_025 <dbl>, hhinc025_030 <dbl>, hhinc030_035 <dbl>, hhinc035_040 <dbl>, hhinc040_045 <dbl>, hhinc045_050 <dbl>, hhinc050_060 <dbl>, hhinc060_075 <dbl>, hhinc075_100 <dbl>, hhinc100_125 <dbl>, hhinc125_150 <dbl>, hhinc150_200 <dbl>, hhinc200p <dbl>, occ_m_manage <dbl>, occ_m_prof_biz <dbl>, occ_m_prof_comp <dbl>, occ_m_svc_comm <dbl>, occ_m_prof_leg <dbl>, occ_m_prof_edu <dbl>, occ_m_svc_ent <dbl>, occ_m_prof_heal <dbl>,
#   occ_m_svc_heal <dbl>, occ_m_svc_fire <dbl>, occ_m_svc_law <dbl>, occ_m_ret_eat <dbl>, occ_m_man_build <dbl>, occ_m_svc_pers <dbl>, occ_m_ret_sales <dbl>, occ_m_svc_off <dbl>, occ_m_man_nat <dbl>, occ_m_man_prod <dbl>, occ_f_manage <dbl>, occ_f_prof_biz <dbl>, occ_f_prof_comp <dbl>, occ_f_svc_comm <dbl>, occ_f_prof_leg <dbl>, occ_f_prof_edu <dbl>, occ_f_svc_ent <dbl>, occ_f_prof_heal <dbl>, occ_f_svc_heal <dbl>, occ_f_svc_fire <dbl>, occ_f_svc_law <dbl>, occ_f_ret_eat <dbl>,
#   occ_f_man_build <dbl>, occ_f_svc_pers <dbl>, occ_f_ret_sales <dbl>, occ_f_svc_off <dbl>, occ_f_man_nat <dbl>, occ_f_man_prod <dbl>
# ℹ Use `print(n = ...)` to see more rows
…
[1] "Initial workingdata_hhinc (82209 rows):"
# A tibble: 82,209 × 22
   GEOID           blockgroup   tract       TractTotal TAZ1454 sharebg hhinc000_010 hhinc010_015 hhinc015_020 hhinc020_025 hhinc025_030 hhinc030_035 hhinc035_040 hhinc040_045 hhinc045_050 hhinc050_060 hhinc060_075 hhinc075_100 hhinc100_125 hhinc125_150 hhinc150_200 hhinc200p
   <chr>           <chr>        <chr>            <int>   <int>   <dbl>        <dbl>        <dbl>        <dbl>        <dbl>        <dbl>        <dbl>        <dbl>        <dbl>        <dbl>        <dbl>        <dbl>        <dbl>        <dbl>        <dbl>        <dbl>     <dbl>
 1 060855017001008 060855017001 06085501700       5155     560  0                33            0           51            0            0            0           15           11            0           11           30           20           12           77           93        87
 2 060855109001003 060855109001 06085510900       5404     360  0.0490            0            0            0           36            0            0           19           16            0           33           11           40           48          106          181       264
 3 060014351032020 060014351032 06001435103       7726     820  0                16            0            0            0            0            0            0            0            0            0           29           42           53           32          103       295
 4 060014305003017 060014305003 06001430500       6289     853  0.0636           45            0            0            0            5           14            0            0           23           96            6            0          122          119            0        66
 5 060014506071030 060014506071 06001450607       6054     739  0                 9            0           32           10            0           26           23            0           15           62           44          122            0           17           65       322
 6 060014507451018 060014507451 06001450745       6374     743  0.0459           87            0           26            0            0           28            0            0            0           14            0          120           29           23          154       555
 7 060014507421002 060014507421 06001450742       5439     745  0.0206            0            0            0            0            5           17            0            0            6           27           67          126           54           38          132       187
 8 060014278001003 060014278001 06001427800       4827     959  0                 0            0            0           70            0            0            9            0            0            0            0            0           47            0           53        62
 9 060014006001007 060014006001 06001400600       1788    1000  0.0372           20           55            0            0            0           19            7            0           15           11           11           30           37           86           53       110
10 060014075001003 060014075001 06001407500       4383     903  0                 0            0           20            0           22            0            0            0            0           21           10           15            0            7            0        28
11 060133551091008 060133551091 06013355109       7167    1186  0.0386            0           32            0            0            0           13            0            0            0            0          113           26           36           39           11        81
12 060133680013009 060133680013 06013368001       5467    1067  0.0743           53            0           33           15            0           31            0            0            0           37            0           72           31           17           47        29
13 060133040072005 060133040072 06013304007       4706    1179  0.0793           16            0            0           88            0            0            0            0            0            0           11            0           53           62           91       151
14 060855078083002 060855078083 06085507808       5674     492  0.0688           11            9            0            0            0            0            0            0            0           10           32           46           11           10           47       375
15 060952529092014 060952529092 06095252909       4421    1278  0.0417            0            0            0            0           10           15            0            0           28           25           42          136          118           57          244       244
16 060952527026124 060952527026 06095252702       7039    1251  0                 2            0            0            0            0            0            0           12            0           43           15           52           87           52           65        85
17 060952535013017 060952535013 06095253501       6327    1290  0                 0           45            0            0            0            0          124           23            0            0          100            0           27            0           20         0
18 060014079001005 060014079001 06001407900       3081     907  0.201            11            0            0            0            0           14            0            0            0           11           25           34          155            9           73        49
19 060014219004016 060014219004 06001421900       3901    1025  0                35           22            0            8            7            0            0            0            0            0            8           39           34           11           60       145
20 060014277004001 060014277004 06001427700       5016     963  0.164            27           83            0            0            0            0            0            0            0            0           28           37           18           42            0       134
# ℹ 82,189 more rows
# ℹ Use `print(n = ...)` to see more rows
…
